\relax 
\citation{mu2010short}
\citation{dudek2010similarity}
\citation{humeau2013electricity}
\citation{lee2011forecasting}
\citation{broderick2013time}
\@writefile{toc}{\contentsline {section}{\numberline {1}Introduction}{1}}
\@writefile{toc}{\contentsline {section}{\numberline {2}Problem setup}{1}}
\bibstyle{alpha}
\bibdata{p_proposal_ref}
\bibcite{broderick2013time}{BQR{$^{+}$}13}
\bibcite{dudek2010similarity}{Dud10}
\bibcite{humeau2013electricity}{HWVA13}
\bibcite{lee2011forecasting}{LT11}
\bibcite{mu2010short}{MWP{$^{+}$}10}
