This is BibTeX, Version 0.99d (TeX Live 2011)
Capacity: max_strings=35307, hash_size=35307, hash_prime=30011
The top-level auxiliary file: /Users/markxchen/Documents/Stanford_Course_Taken/2015Spring/CEE272R/272r_course_project/cee272r_project/p_proposal/.texpadtmp/p_proposal.aux
The style file: alpha.bst
Database file #1: ../p_proposal_ref.bib
You've used 5 entries,
            2543 wiz_defined-function locations,
            588 strings with 5820 characters,
and the built_in function-call counts, 2442 in all, are:
= -- 246
> -- 133
< -- 4
+ -- 48
- -- 48
* -- 177
:= -- 404
add.period$ -- 17
call.type$ -- 5
change.case$ -- 38
chr.to.int$ -- 5
cite$ -- 5
duplicate$ -- 95
empty$ -- 160
format.name$ -- 52
if$ -- 504
int.to.chr$ -- 1
int.to.str$ -- 0
missing$ -- 5
newline$ -- 29
num.names$ -- 15
pop$ -- 38
preamble$ -- 1
purify$ -- 43
quote$ -- 0
skip$ -- 80
stack$ -- 0
substring$ -- 118
swap$ -- 26
text.length$ -- 4
text.prefix$ -- 1
top$ -- 0
type$ -- 40
warning$ -- 0
while$ -- 25
width$ -- 6
write$ -- 69
